{
	"info": {
		"_postman_id": "3fb83d7a-3b1b-4df8-bd1f-ebb0537f73c3",
		"name": "workast",
		"schema": "https://schema.getpostman.com/json/collection/v2.1.0/collection.json"
	},
	"item": [
		{
			"name": "Create User",
			"request": {
				"method": "POST",
				"header": [
					{
						"key": "API-TOKEN",
						"value": "5CD4ED173E1C95FE763B753A297D5",
						"type": "text"
					},
					{
						"key": "Content-Type",
						"name": "Content-Type",
						"value": "application/x-www-form-urlencoded",
						"type": "text"
					}
				],
				"body": {
					"mode": "urlencoded",
					"urlencoded": [
						{
							"key": "avatar",
							"value": "http://www.clarin.com",
							"type": "text"
						},
						{
							"key": "name",
							"value": "prueba",
							"type": "text"
						}
					]
				},
				"url": {
					"raw": "http://localhost:3000/api/v1/user/add",
					"protocol": "http",
					"host": [
						"localhost"
					],
					"port": "3000",
					"path": [
						"api",
						"v1",
						"user",
						"add"
					]
				}
			},
			"response": []
		},
		{
			"name": "Get Articles",
			"request": {
				"method": "GET",
				"header": [
					{
						"key": "API-TOKEN",
						"value": "5CD4ED173E1C95FE763B753A297D5",
						"type": "text"
					}
				],
				"url": {
					"raw": "http://localhost:3000/api/v1/article/get?tags=2134, 123,432423",
					"protocol": "http",
					"host": [
						"localhost"
					],
					"port": "3000",
					"path": [
						"api",
						"v1",
						"article",
						"get"
					],
					"query": [
						{
							"key": "tags",
							"value": "2134, 123,432423"
						}
					]
				}
			},
			"response": []
		},
		{
			"name": "Create Article",
			"request": {
				"method": "POST",
				"header": [
					{
						"key": "API-TOKEN",
						"value": "5CD4ED173E1C95FE763B753A297D5",
						"type": "text"
					},
					{
						"key": "Content-Type",
						"name": "Content-Type",
						"value": "application/x-www-form-urlencoded",
						"type": "text"
					}
				],
				"body": {
					"mode": "urlencoded",
					"urlencoded": [
						{
							"key": "text",
							"value": "es una prueba",
							"type": "text"
						},
						{
							"key": "title",
							"value": "prueba",
							"type": "text"
						},
						{
							"key": "userId",
							"value": "5dfebb906efbc825bd2c4f12",
							"type": "text"
						},
						{
							"key": "tags",
							"value": "2134, 123,432423",
							"type": "text"
						}
					]
				},
				"url": {
					"raw": "http://localhost:3000/api/v1/article/add",
					"protocol": "http",
					"host": [
						"localhost"
					],
					"port": "3000",
					"path": [
						"api",
						"v1",
						"article",
						"add"
					]
				}
			},
			"response": []
		},
		{
			"name": "Edit Article",
			"request": {
				"method": "PUT",
				"header": [
					{
						"key": "API-TOKEN",
						"value": "5CD4ED173E1C95FE763B753A297D5",
						"type": "text"
					},
					{
						"key": "Content-Type",
						"name": "Content-Type",
						"value": "application/x-www-form-urlencoded",
						"type": "text"
					}
				],
				"body": {
					"mode": "urlencoded",
					"urlencoded": [
						{
							"key": "text",
							"value": "galllo",
							"type": "text"
						},
						{
							"key": "title",
							"value": "prueba",
							"type": "text",
							"disabled": true
						},
						{
							"key": "userId",
							"value": "5dff5ed2d36fd721580b618",
							"type": "text",
							"disabled": true
						},
						{
							"key": "tags",
							"value": "666776",
							"type": "text"
						},
						{
							"key": "id",
							"value": "5dff64b032f62527b962e36d",
							"type": "text",
							"disabled": true
						}
					]
				},
				"url": {
					"raw": "http://localhost:3000/api/v1/article/edit/5dff7f16d30565501f72e303",
					"protocol": "http",
					"host": [
						"localhost"
					],
					"port": "3000",
					"path": [
						"api",
						"v1",
						"article",
						"edit",
						"5dff7f16d30565501f72e303"
					]
				}
			},
			"response": []
		},
		{
			"name": "Delete Article",
			"request": {
				"method": "DELETE",
				"header": [
					{
						"key": "API-TOKEN",
						"value": "5CD4ED173E1C95FE763B753A297D5",
						"type": "text"
					},
					{
						"key": "Content-Type",
						"name": "Content-Type",
						"value": "application/x-www-form-urlencoded",
						"type": "text"
					}
				],
				"body": {
					"mode": "urlencoded",
					"urlencoded": [
						{
							"key": "text",
							"value": "actualizado!",
							"type": "text",
							"disabled": true
						},
						{
							"key": "title",
							"value": "prueba",
							"type": "text",
							"disabled": true
						},
						{
							"key": "userId",
							"value": "5dff5ed2d36fd721580b618",
							"type": "text",
							"disabled": true
						},
						{
							"key": "tags",
							"value": "321321, 432432",
							"type": "text",
							"disabled": true
						},
						{
							"key": "id",
							"value": "5dff64b032f62527b962e36d",
							"type": "text",
							"disabled": true
						}
					]
				},
				"url": {
					"raw": "http://localhost:3000/api/v1/article/delete/5dffca03c61d552b295e2174",
					"protocol": "http",
					"host": [
						"localhost"
					],
					"port": "3000",
					"path": [
						"api",
						"v1",
						"article",
						"delete",
						"5dffca03c61d552b295e2174"
					]
				}
			},
			"response": []
		}
	],
	"protocolProfileBehavior": {}
}